ghenry gervaise.henry@utsouthwestern.edu 18452.22 17783.82 315.59 352.81
ssivak sushama.sivakumar@utsouthwestern.edu 11832.33 7753.3 0.01 4079.03
s189701 Jeremy.Mathews@UTSouthwestern.edu 9704.76 8263.99 846.71 594.06
s164857 Brandon.Faubert@UTSouthwestern.edu 9078.79 6906.53 161.64 2010.63
s179951 kyung-min.lee@utsouthwestern.edu 8655.79 5932.48 130.84 2592.48
s166458 brandi.cantarel@utsouthwestern.edu 7099.62 4136.45 60.32 2902.85
s181385 spencer.barnes@utsouthwestern.edu 5764.56 1830.53 123.65 3810.38
xliu11 xihui.liu@utsouthwestern.edu 5197.08 4035.32 76.42 1085.34
sbhat5 samadrita.bhattacharyya@utsouthwestern.edu 5144.15 3511.72 111.74 1520.69
s181841 Sruthi.Chappidi@utsouthwestern.edu 5135.32 3930.09 66.03 1139.21
lvishv Lavanya.Vishvanath@utsouthwestern.edu 4798.07 3670.38 138.84 988.85
s184949 Chelsea.Pinkham@UTSouthwestern.edu 4453.37 3710.35 250.33 492.69
s176033 xiaolin.zhu@phhs.org 4096.96 3241.01 0.0 855.95
swu2 shwu-yuan.wu@utsouthwestern.edu 3797.86 2565.24 223.98 1008.64
s433683 morgan.crewe@utsouthwestern.edu 3703.39 1966.55 63.98 1672.85
s185797 Holly.Ruess@utsouthwestern.edu 3332.2 1048.63 77.7 2205.87
xluo4 xin.luo@utsouthwestern.edu 3328.8 1269.41 17.29 2042.1
s185573 lahiri.konada@utsouthwestern.edu 3065.55 2688.64 48.58 328.32
kbatte Kimberly.Batten@utsouthwestern.edu 2809.51 613.45 93.51 2102.54
s163035 Venkat.Malladi@utsouthwestern.edu 2617.22 2617.22 0.0 0.0
s186964 karthigayini.sivaprakasam@UTSouthwestern.edu 2259.48 1194.81 0.0 1064.67
s167719 Jeon.Lee@UTSouthwestern.edu 2235.44 1917.26 153.35 164.83
s421908 Yuemeng.Jia@UTSouthwestern.edu 2232.1 1986.72 245.37 0.0
lsifue Luis.Sifuentes-Dominguez@UTSouthwestern.edu 1975.36 972.93 139.36 863.07
s158147 amir.segev@utsouthwestern.edu 1837.48 661.11 88.34 1088.03
s157824 enzo.tedone@utsouthwestern.edu 1800.97 529.51 12.38 1259.08
s175080 Keri.Drake@UTSouthwestern.edu 1721.64 1540.01 181.62 0.0
skim17 sooyoung.kim@utsouthwestern.edu 1684.2 1421.24 118.17 144.8
s196515 joseph.buehler@utsouthwestern.edu 1643.54 1268.0 52.0 323.53
s180323 eslam.elghonaimy@utsouthwestern.edu 1586.74 1233.83 163.07 189.84
s425420 Richard.Rueda@utsouthwestern.edu 1513.23 1291.07 42.92 179.24
niqbal nida.iqbal@utsouthwestern.edu 1479.17 1388.83 43.87 46.47
mdu2 mingjian.du@utsouthwestern.edu 1197.57 814.26 38.56 344.75
s169201 Jianjun.Wu@UTSouthwestern.edu 1188.84 957.41 0.0 231.44
bchen4 beibei.chen@utsouthwestern.edu 1171.4 1093.58 29.34 48.47
cheple chelsea.hepler@utsouthwestern.edu 1131.54 1106.5 25.04 0.0
pstaro petro.starokadomskyy@utsouthwestern.edu 1127.84 407.58 23.98 696.29
s159066 zhaoning.wang@utsouthwestern.edu 1106.29 319.29 43.23 743.77
alope8 adam.lopez@utsouthwestern.edu 1036.44 676.45 21.47 338.52
aclick arielle.click@utsouthwestern.edu 885.19 811.16 74.03 0.0
s418665 carlos.guzman@utsouthwestern.edu 853.14 752.37 100.77 0.0
dtrudgian david.trudgian@UTSouthwestern.edu 774.65 284.59 0.09 489.97
s418131 Devin.OKelly@UTSouthwestern.edu 625.22 210.75 363.93 50.54
s181706 Jonathan.Gesell@utsouthwestern.edu 617.34 616.21 1.13 0.0
s425822 qianbin.zhang@utsouthwestern.edu 595.78 583.25 12.53 0.0
mkim8 mins.kim@utsouthwestern.edu 578.39 0.0 0.0 578.39
s10538 lynda.bennett@utsouthwestern.edu 524.23 241.49 39.68 243.06
s175603 Erika.Villa@utsouthwestern.edu 492.99 297.24 5.07 190.68
s421646 Anne.Ryan@UTSouthwestern.edu 481.97 428.11 32.52 21.34
abooko angie.bookout@utsouthwestern.edu 468.96 192.95 13.59 262.43
s167891 wei1.guo@utsouthwestern.edu 462.66 380.2 82.39 0.06
s430051 SpencerD.Shelton@utsouthwestern.edu 409.58 409.58 0.0 0.0
s175047 Apoorva.Ajay@UTSouthwestern.edu 338.25 167.43 7.49 163.33
s172966 xun.wang@utsouthwestern.edu 277.25 8.57 7.48 261.2
dngo1 ductri.ngo@utsouthwestern.edu 243.2 77.79 165.41 0.0
s186145 Zhenkang.Chen@UTSouthwestern.edu 223.93 0.0 0.0 223.93
s195008 xiaochen.wang@utsouthwestern.edu 212.11 60.87 0.0 151.24
s178791 yihui.wang@utsouthwestern.edu 201.26 164.4 10.76 26.11
s437587 natalie.bell@utsouthwestern.edu 193.35 131.13 10.87 51.35
pshar2 prithvi.raj@utsouthwestern.edu 160.69 159.81 0.0 0.88
ydu yi.du@utsouthwestern.edu 160.12 160.12 0.0 0.0
s190450 peng.lian@utsouthwestern.edu 129.38 62.44 35.35 31.59
nyan nan.yan@utsouthwestern.edu 107.63 0.0 107.63 0.0
s179834 nitin.khandelwal@utsouthwestern.edu 72.3 0.0 28.27 44.02
s178862 Qiang.feng@utsouthwestern.edu 57.53 0.0 57.53 0.0
s181649 christopher.bennett@utsouthwestern.edu 56.58 0.0 56.58 0.0
liw Wen-hong.Li@UTSouthwestern.edu 56.41 38.34 12.13 5.95
s418336 Minzhe.Zhang@UTSouthwestern.edu 51.0 0.0 51.0 0.0
afern4 antonio.fernandez-perez@utsouthwestern.edu 34.68 34.68 0.0 0.0
skhan4 shaheen.khan@utsouthwestern.edu 29.89 0.0 24.97 4.92
s191687 Yihang.Guo@UTSouthwestern.edu 27.47 20.76 0.0 6.71
dowen david.owen@utsouthwestern.edu 26.7 6.5 20.2 0.0
s177373 Danni.Luo@UTSouthwestern.edu 23.17 0.02 0.0 23.16
s154887 min.ni@utsouthwestern.edu 21.1 21.1 0.0 0.0
s170636 emily.kunce@utsouthwestern.edu 20.85 0.09 20.76 0.0
s173696 Yuxuan.Liu@utsouthwestern.edu 19.6 15.61 4.0 0.0
s179115 simeng.wang@utsouthwestern.edu 17.48 0.0 17.48 0.0
s196494 ivan.arreola@utsouthwestern.edu 16.57 0.0 2.74 13.83
jmeeks julian.meeks@UTSouthwestern.edu 10.14 3.26 0.56 6.32
tnandu tulip.nandu@utsouthwestern.edu 10.04 0.01 10.03 0.0
xliu10 xin.liu@utsouthwestern.edu 8.48 0.26 8.21 0.0
xsun2 xuxu.sun@utsouthwestern.edu 6.6 0.0 6.6 0.0
cpak1 Chi.Pak@utsouthwestern.edu 6.12 0.15 5.97 0.0
zhuang zhi-jiang.huang@utsouthwestern.edu 4.5 0.04 4.47 0.0
s173217 yingfei.chen@utsouthwestern.edu 4.31 0.14 4.17 0.0
